\babel@toc {brazil}{}
\contentsline {chapter}{Introdu\IeC {\c c}\IeC {\~a}o}{1}{chapter*.6}% 
\contentsline {chapter}{\numberline {1}Metodologia}{2}{chapter.1}% 
\contentsline {section}{\numberline {1.1}Se\IeC {\c c}\IeC {\~a}o 1}{2}{section.1.1}% 
\contentsline {section}{\numberline {1.2}Se\IeC {\c c}\IeC {\~a}o 2}{2}{section.1.2}% 
\contentsline {chapter}{\numberline {2}Motiva\IeC {\c c}\IeC {\~a}o}{3}{chapter.2}% 
\contentsline {section}{\numberline {2.1}Desafios}{3}{section.2.1}% 
\contentsline {chapter}{\numberline {3}Delimita\IeC {\c c}\IeC {\~a}o do Projeto}{4}{chapter.3}% 
\contentsline {chapter}{\numberline {4}Referencial Te\IeC {\'o}rico}{5}{chapter.4}% 
\contentsline {section}{\numberline {4.1}Se\IeC {\c c}\IeC {\~a}o 1}{5}{section.4.1}% 
\contentsline {chapter}{\numberline {5}Descri\IeC {\c c}\IeC {\~a}o do Projeto}{6}{chapter.5}% 
\contentsline {chapter}{\numberline {6}Conclus\IeC {\~a}o}{7}{chapter.6}% 
\contentsline {section}{\numberline {6.1}Se\IeC {\c c}\IeC {\~a}o 1}{7}{section.6.1}% 
\contentsline {chapter}{\numberline {7}Trabalhos Futuros}{8}{chapter.7}% 
\contentsline {section}{\numberline {7.1}Se\IeC {\c c}\IeC {\~a}o 1}{8}{section.7.1}% 
