\relax 
\providecommand\hyper@newdestlabel[2]{}
\catcode `"\active 
\providecommand\HyperFirstAtBeginDocument{\AtBeginDocument}
\HyperFirstAtBeginDocument{\ifx\hyper@anchor\@undefined
\global\let\oldcontentsline\contentsline
\gdef\contentsline#1#2#3#4{\oldcontentsline{#1}{#2}{#3}}
\global\let\oldnewlabel\newlabel
\gdef\newlabel#1#2{\newlabelxx{#1}#2}
\gdef\newlabelxx#1#2#3#4#5#6{\oldnewlabel{#1}{{#2}{#3}}}
\AtEndDocument{\ifx\hyper@anchor\@undefined
\let\contentsline\oldcontentsline
\let\newlabel\oldnewlabel
\fi}
\fi}
\global\let\hyper@last\relax 
\gdef\HyperFirstAtBeginDocument#1{#1}
\providecommand\HyField@AuxAddToFields[1]{}
\providecommand\HyField@AuxAddToCoFields[2]{}
\bibstyle{plain}
\babel@aux{brazil}{}
\@writefile{toc}{\contentsline {chapter}{Introdu\IeC {\c c}\IeC {\~a}o}{1}{chapter*.6}\protected@file@percent }
\@writefile{toc}{\contentsline {chapter}{\numberline {1}Metodologia}{2}{chapter.1}\protected@file@percent }
\@writefile{lof}{\addvspace {10\p@ }}
\@writefile{lot}{\addvspace {10\p@ }}
\@writefile{toc}{\contentsline {section}{\numberline {1.1}Se\IeC {\c c}\IeC {\~a}o 1}{2}{section.1.1}\protected@file@percent }
\@writefile{toc}{\contentsline {section}{\numberline {1.2}Se\IeC {\c c}\IeC {\~a}o 2}{2}{section.1.2}\protected@file@percent }
\@writefile{toc}{\contentsline {chapter}{\numberline {2}Motiva\IeC {\c c}\IeC {\~a}o}{3}{chapter.2}\protected@file@percent }
\@writefile{lof}{\addvspace {10\p@ }}
\@writefile{lot}{\addvspace {10\p@ }}
\@writefile{toc}{\contentsline {section}{\numberline {2.1}Desafios}{3}{section.2.1}\protected@file@percent }
\@writefile{toc}{\contentsline {chapter}{\numberline {3}Delimita\IeC {\c c}\IeC {\~a}o do Projeto}{4}{chapter.3}\protected@file@percent }
\@writefile{lof}{\addvspace {10\p@ }}
\@writefile{lot}{\addvspace {10\p@ }}
\@writefile{toc}{\contentsline {chapter}{\numberline {4}Referencial Te\IeC {\'o}rico}{5}{chapter.4}\protected@file@percent }
\@writefile{lof}{\addvspace {10\p@ }}
\@writefile{lot}{\addvspace {10\p@ }}
\@writefile{toc}{\contentsline {section}{\numberline {4.1}Se\IeC {\c c}\IeC {\~a}o 1}{5}{section.4.1}\protected@file@percent }
\@writefile{toc}{\contentsline {chapter}{\numberline {5}Descri\IeC {\c c}\IeC {\~a}o do Projeto}{6}{chapter.5}\protected@file@percent }
\@writefile{lof}{\addvspace {10\p@ }}
\@writefile{lot}{\addvspace {10\p@ }}
\@writefile{toc}{\contentsline {chapter}{\numberline {6}Conclus\IeC {\~a}o}{7}{chapter.6}\protected@file@percent }
\@writefile{lof}{\addvspace {10\p@ }}
\@writefile{lot}{\addvspace {10\p@ }}
\@writefile{toc}{\contentsline {section}{\numberline {6.1}Se\IeC {\c c}\IeC {\~a}o 1}{7}{section.6.1}\protected@file@percent }
\@writefile{toc}{\contentsline {chapter}{\numberline {7}Trabalhos Futuros}{8}{chapter.7}\protected@file@percent }
\@writefile{lof}{\addvspace {10\p@ }}
\@writefile{lot}{\addvspace {10\p@ }}
\@writefile{toc}{\contentsline {section}{\numberline {7.1}Se\IeC {\c c}\IeC {\~a}o 1}{8}{section.7.1}\protected@file@percent }
\bibdata{Bibliografia}
